^D:\УЧЁБА\2 КУРС ЛАБЫ\ООП\ООП 1\ООП 1\X64\DEBUG\SOURCE.OBJ
/OUT:"D:\УЧЁБА\2 КУРС ЛАБЫ\ООП\ООП 1\X64\DEBUG\ООП 1.EXE" /INCREMENTAL /NOLOGO KERNEL32.LIB USER32.LIB GDI32.LIB WINSPOOL.LIB COMDLG32.LIB ADVAPI32.LIB SHELL32.LIB OLE32.LIB OLEAUT32.LIB UUID.LIB ODBC32.LIB ODBCCP32.LIB /MANIFEST /MANIFESTUAC:"level='asInvoker' uiAccess='false'" /manifest:embed /DEBUG:FASTLINK /PDB:"D:\УЧЁБА\2 КУРС ЛАБЫ\ООП\ООП 1\X64\DEBUG\ООП 1.PDB" /TLBID:1 /DYNAMICBASE /NXCOMPAT /IMPLIB:"D:\УЧЁБА\2 КУРС ЛАБЫ\ООП\ООП 1\X64\DEBUG\ООП 1.LIB" /MACHINE:X64 X64\DEBUG\SOURCE.OBJ
^D:\УЧЁБА\2 КУРС ЛАБЫ\ООП\ООП 1\ООП 1\X64\DEBUG\CARD.OBJ|D:\УЧЁБА\2 КУРС ЛАБЫ\ООП\ООП 1\ООП 1\X64\DEBUG\CARDS.OBJ|D:\УЧЁБА\2 КУРС ЛАБЫ\ООП\ООП 1\ООП 1\X64\DEBUG\CHANGECOLORCARD.OBJ|D:\УЧЁБА\2 КУРС ЛАБЫ\ООП\ООП 1\ООП 1\X64\DEBUG\DECK.OBJ|D:\УЧЁБА\2 КУРС ЛАБЫ\ООП\ООП 1\ООП 1\X64\DEBUG\GAMEBOARD.OBJ|D:\УЧЁБА\2 КУРС ЛАБЫ\ООП\ООП 1\ООП 1\X64\DEBUG\HAND.OBJ|D:\УЧЁБА\2 КУРС ЛАБЫ\ООП\ООП 1\ООП 1\X64\DEBUG\INTERFACE.OBJ|D:\УЧЁБА\2 КУРС ЛАБЫ\ООП\ООП 1\ООП 1\X64\DEBUG\PILEOFCARDS.OBJ|D:\УЧЁБА\2 КУРС ЛАБЫ\ООП\ООП 1\ООП 1\X64\DEBUG\PLUSFOURCARD.OBJ|D:\УЧЁБА\2 КУРС ЛАБЫ\ООП\ООП 1\ООП 1\X64\DEBUG\PLUSTWOCARD.OBJ|D:\УЧЁБА\2 КУРС ЛАБЫ\ООП\ООП 1\ООП 1\X64\DEBUG\REGULARCARD.OBJ|D:\УЧЁБА\2 КУРС ЛАБЫ\ООП\ООП 1\ООП 1\X64\DEBUG\REVERSECARD.OBJ|D:\УЧЁБА\2 КУРС ЛАБЫ\ООП\ООП 1\ООП 1\X64\DEBUG\SKIPCARD.OBJ|D:\УЧЁБА\2 КУРС ЛАБЫ\ООП\ООП 1\ООП 1\X64\DEBUG\SOURCE.OBJ
/OUT:"D:\УЧЁБА\2 КУРС ЛАБЫ\ООП\ООП 1\X64\DEBUG\ООП 1.EXE" /INCREMENTAL /NOLOGO KERNEL32.LIB USER32.LIB GDI32.LIB WINSPOOL.LIB COMDLG32.LIB ADVAPI32.LIB SHELL32.LIB OLE32.LIB OLEAUT32.LIB UUID.LIB ODBC32.LIB ODBCCP32.LIB /MANIFEST /MANIFESTUAC:"level='asInvoker' uiAccess='false'" /manifest:embed /DEBUG:FASTLINK /PDB:"D:\УЧЁБА\2 КУРС ЛАБЫ\ООП\ООП 1\X64\DEBUG\ООП 1.PDB" /TLBID:1 /DYNAMICBASE /NXCOMPAT /IMPLIB:"D:\УЧЁБА\2 КУРС ЛАБЫ\ООП\ООП 1\X64\DEBUG\ООП 1.LIB" /MACHINE:X64 X64\DEBUG\CARD.OBJX64\DEBUG\CARDS.OBJX64\DEBUG\CHANGECOLORCARD.OBJX64\DEBUG\DECK.OBJX64\DEBUG\GAMEBOARD.OBJX64\DEBUG\HAND.OBJX64\DEBUG\INTERFACE.OBJX64\DEBUG\PILEOFCARDS.OBJX64\DEBUG\PLUSFOURCARD.OBJX64\DEBUG\PLUSTWOCARD.OBJX64\DEBUG\REGULARCARD.OBJX64\DEBUG\REVERSECARD.OBJX64\DEBUG\SKIPCARD.OBJX64\DEBUG\SOURCE.OBJ
