^D:\УЧЁБА\2 КУРС ЛАБЫ\ООП\ООП 1\ООП 1\SOURCE.CPP
D:\VISUAL STUDIO\PROFESSIONAL\VC\TOOLS\MSVC\14.15.26726\BIN\HOSTX86\X86\1049\CLUI.DLL
C:\WINDOWS\GLOBALIZATION\SORTING\SORTDEFAULT.NLS
C:\WINDOWS\SYSTEM32\TZRES.DLL
D:\VISUAL STUDIO\PROFESSIONAL\VC\TOOLS\MSVC\14.15.26726\INCLUDE\IOSTREAM
D:\VISUAL STUDIO\PROFESSIONAL\VC\TOOLS\MSVC\14.15.26726\INCLUDE\ISTREAM
D:\VISUAL STUDIO\PROFESSIONAL\VC\TOOLS\MSVC\14.15.26726\INCLUDE\OSTREAM
D:\VISUAL STUDIO\PROFESSIONAL\VC\TOOLS\MSVC\14.15.26726\INCLUDE\IOS
D:\VISUAL STUDIO\PROFESSIONAL\VC\TOOLS\MSVC\14.15.26726\INCLUDE\XLOCNUM
D:\VISUAL STUDIO\PROFESSIONAL\VC\TOOLS\MSVC\14.15.26726\INCLUDE\CLIMITS
D:\VISUAL STUDIO\PROFESSIONAL\VC\TOOLS\MSVC\14.15.26726\INCLUDE\YVALS.H
D:\VISUAL STUDIO\PROFESSIONAL\VC\TOOLS\MSVC\14.15.26726\INCLUDE\YVALS_CORE.H
D:\VISUAL STUDIO\PROFESSIONAL\VC\TOOLS\MSVC\14.15.26726\INCLUDE\XKEYCHECK.H
D:\VISUAL STUDIO\PROFESSIONAL\VC\TOOLS\MSVC\14.15.26726\INCLUDE\CRTDEFS.H
D:\VISUAL STUDIO\PROFESSIONAL\VC\TOOLS\MSVC\14.15.26726\INCLUDE\VCRUNTIME.H
D:\VISUAL STUDIO\PROFESSIONAL\VC\TOOLS\MSVC\14.15.26726\INCLUDE\SAL.H
D:\VISUAL STUDIO\PROFESSIONAL\VC\TOOLS\MSVC\14.15.26726\INCLUDE\CONCURRENCYSAL.H
D:\VISUAL STUDIO\PROFESSIONAL\VC\TOOLS\MSVC\14.15.26726\INCLUDE\VADEFS.H
C:\PROGRAM FILES (X86)\WINDOWS KITS\10\INCLUDE\10.0.17134.0\UCRT\CORECRT.H
C:\PROGRAM FILES (X86)\WINDOWS KITS\10\INCLUDE\10.0.17134.0\UCRT\CRTDBG.H
D:\VISUAL STUDIO\PROFESSIONAL\VC\TOOLS\MSVC\14.15.26726\INCLUDE\VCRUNTIME_NEW_DEBUG.H
D:\VISUAL STUDIO\PROFESSIONAL\VC\TOOLS\MSVC\14.15.26726\INCLUDE\VCRUNTIME_NEW.H
D:\VISUAL STUDIO\PROFESSIONAL\VC\TOOLS\MSVC\14.15.26726\INCLUDE\USE_ANSI.H
D:\VISUAL STUDIO\PROFESSIONAL\VC\TOOLS\MSVC\14.15.26726\INCLUDE\LIMITS.H
D:\VISUAL STUDIO\PROFESSIONAL\VC\TOOLS\MSVC\14.15.26726\INCLUDE\CMATH
D:\VISUAL STUDIO\PROFESSIONAL\VC\TOOLS\MSVC\14.15.26726\INCLUDE\CSTDLIB
C:\PROGRAM FILES (X86)\WINDOWS KITS\10\INCLUDE\10.0.17134.0\UCRT\STDLIB.H
C:\PROGRAM FILES (X86)\WINDOWS KITS\10\INCLUDE\10.0.17134.0\UCRT\CORECRT_MALLOC.H
C:\PROGRAM FILES (X86)\WINDOWS KITS\10\INCLUDE\10.0.17134.0\UCRT\CORECRT_SEARCH.H
C:\PROGRAM FILES (X86)\WINDOWS KITS\10\INCLUDE\10.0.17134.0\UCRT\STDDEF.H
C:\PROGRAM FILES (X86)\WINDOWS KITS\10\INCLUDE\10.0.17134.0\UCRT\CORECRT_WSTDLIB.H
C:\PROGRAM FILES (X86)\WINDOWS KITS\10\INCLUDE\10.0.17134.0\UCRT\MATH.H
C:\PROGRAM FILES (X86)\WINDOWS KITS\10\INCLUDE\10.0.17134.0\UCRT\CORECRT_MATH.H
D:\VISUAL STUDIO\PROFESSIONAL\VC\TOOLS\MSVC\14.15.26726\INCLUDE\XTGMATH.H
D:\VISUAL STUDIO\PROFESSIONAL\VC\TOOLS\MSVC\14.15.26726\INCLUDE\XTR1COMMON
D:\VISUAL STUDIO\PROFESSIONAL\VC\TOOLS\MSVC\14.15.26726\INCLUDE\CSTDIO
C:\PROGRAM FILES (X86)\WINDOWS KITS\10\INCLUDE\10.0.17134.0\UCRT\STDIO.H
C:\PROGRAM FILES (X86)\WINDOWS KITS\10\INCLUDE\10.0.17134.0\UCRT\CORECRT_WSTDIO.H
C:\PROGRAM FILES (X86)\WINDOWS KITS\10\INCLUDE\10.0.17134.0\UCRT\CORECRT_STDIO_CONFIG.H
D:\VISUAL STUDIO\PROFESSIONAL\VC\TOOLS\MSVC\14.15.26726\INCLUDE\STREAMBUF
D:\VISUAL STUDIO\PROFESSIONAL\VC\TOOLS\MSVC\14.15.26726\INCLUDE\XIOSBASE
D:\VISUAL STUDIO\PROFESSIONAL\VC\TOOLS\MSVC\14.15.26726\INCLUDE\XLOCALE
D:\VISUAL STUDIO\PROFESSIONAL\VC\TOOLS\MSVC\14.15.26726\INCLUDE\CSTRING
C:\PROGRAM FILES (X86)\WINDOWS KITS\10\INCLUDE\10.0.17134.0\UCRT\STRING.H
C:\PROGRAM FILES (X86)\WINDOWS KITS\10\INCLUDE\10.0.17134.0\UCRT\CORECRT_MEMORY.H
C:\PROGRAM FILES (X86)\WINDOWS KITS\10\INCLUDE\10.0.17134.0\UCRT\CORECRT_MEMCPY_S.H
C:\PROGRAM FILES (X86)\WINDOWS KITS\10\INCLUDE\10.0.17134.0\UCRT\ERRNO.H
D:\VISUAL STUDIO\PROFESSIONAL\VC\TOOLS\MSVC\14.15.26726\INCLUDE\VCRUNTIME_STRING.H
C:\PROGRAM FILES (X86)\WINDOWS KITS\10\INCLUDE\10.0.17134.0\UCRT\CORECRT_WSTRING.H
D:\VISUAL STUDIO\PROFESSIONAL\VC\TOOLS\MSVC\14.15.26726\INCLUDE\STDEXCEPT
D:\VISUAL STUDIO\PROFESSIONAL\VC\TOOLS\MSVC\14.15.26726\INCLUDE\EXCEPTION
D:\VISUAL STUDIO\PROFESSIONAL\VC\TOOLS\MSVC\14.15.26726\INCLUDE\TYPE_TRAITS
D:\VISUAL STUDIO\PROFESSIONAL\VC\TOOLS\MSVC\14.15.26726\INCLUDE\XSTDDEF
D:\VISUAL STUDIO\PROFESSIONAL\VC\TOOLS\MSVC\14.15.26726\INCLUDE\CSTDDEF
D:\VISUAL STUDIO\PROFESSIONAL\VC\TOOLS\MSVC\14.15.26726\INCLUDE\INITIALIZER_LIST
C:\PROGRAM FILES (X86)\WINDOWS KITS\10\INCLUDE\10.0.17134.0\UCRT\MALLOC.H
D:\VISUAL STUDIO\PROFESSIONAL\VC\TOOLS\MSVC\14.15.26726\INCLUDE\VCRUNTIME_EXCEPTION.H
D:\VISUAL STUDIO\PROFESSIONAL\VC\TOOLS\MSVC\14.15.26726\INCLUDE\EH.H
C:\PROGRAM FILES (X86)\WINDOWS KITS\10\INCLUDE\10.0.17134.0\UCRT\CORECRT_TERMINATE.H
D:\VISUAL STUDIO\PROFESSIONAL\VC\TOOLS\MSVC\14.15.26726\INCLUDE\XSTRING
D:\VISUAL STUDIO\PROFESSIONAL\VC\TOOLS\MSVC\14.15.26726\INCLUDE\XMEMORY0
D:\VISUAL STUDIO\PROFESSIONAL\VC\TOOLS\MSVC\14.15.26726\INCLUDE\CSTDINT
D:\VISUAL STUDIO\PROFESSIONAL\VC\TOOLS\MSVC\14.15.26726\INCLUDE\STDINT.H
D:\VISUAL STUDIO\PROFESSIONAL\VC\TOOLS\MSVC\14.15.26726\INCLUDE\LIMITS
D:\VISUAL STUDIO\PROFESSIONAL\VC\TOOLS\MSVC\14.15.26726\INCLUDE\YMATH.H
D:\VISUAL STUDIO\PROFESSIONAL\VC\TOOLS\MSVC\14.15.26726\INCLUDE\CFLOAT
C:\PROGRAM FILES (X86)\WINDOWS KITS\10\INCLUDE\10.0.17134.0\UCRT\FLOAT.H
D:\VISUAL STUDIO\PROFESSIONAL\VC\TOOLS\MSVC\14.15.26726\INCLUDE\CWCHAR
C:\PROGRAM FILES (X86)\WINDOWS KITS\10\INCLUDE\10.0.17134.0\UCRT\WCHAR.H
C:\PROGRAM FILES (X86)\WINDOWS KITS\10\INCLUDE\10.0.17134.0\UCRT\CORECRT_WCONIO.H
C:\PROGRAM FILES (X86)\WINDOWS KITS\10\INCLUDE\10.0.17134.0\UCRT\CORECRT_WCTYPE.H
C:\PROGRAM FILES (X86)\WINDOWS KITS\10\INCLUDE\10.0.17134.0\UCRT\CORECRT_WDIRECT.H
C:\PROGRAM FILES (X86)\WINDOWS KITS\10\INCLUDE\10.0.17134.0\UCRT\CORECRT_WIO.H
C:\PROGRAM FILES (X86)\WINDOWS KITS\10\INCLUDE\10.0.17134.0\UCRT\CORECRT_SHARE.H
C:\PROGRAM FILES (X86)\WINDOWS KITS\10\INCLUDE\10.0.17134.0\UCRT\CORECRT_WPROCESS.H
C:\PROGRAM FILES (X86)\WINDOWS KITS\10\INCLUDE\10.0.17134.0\UCRT\CORECRT_WTIME.H
C:\PROGRAM FILES (X86)\WINDOWS KITS\10\INCLUDE\10.0.17134.0\UCRT\SYS\STAT.H
C:\PROGRAM FILES (X86)\WINDOWS KITS\10\INCLUDE\10.0.17134.0\UCRT\SYS\TYPES.H
D:\VISUAL STUDIO\PROFESSIONAL\VC\TOOLS\MSVC\14.15.26726\INCLUDE\NEW
D:\VISUAL STUDIO\PROFESSIONAL\VC\TOOLS\MSVC\14.15.26726\INCLUDE\XUTILITY
D:\VISUAL STUDIO\PROFESSIONAL\VC\TOOLS\MSVC\14.15.26726\INCLUDE\UTILITY
D:\VISUAL STUDIO\PROFESSIONAL\VC\TOOLS\MSVC\14.15.26726\INCLUDE\IOSFWD
D:\VISUAL STUDIO\PROFESSIONAL\VC\TOOLS\MSVC\14.15.26726\INCLUDE\XATOMIC0.H
D:\VISUAL STUDIO\PROFESSIONAL\VC\TOOLS\MSVC\14.15.26726\INCLUDE\INTRIN0.H
D:\VISUAL STUDIO\PROFESSIONAL\VC\TOOLS\MSVC\14.15.26726\INCLUDE\TYPEINFO
D:\VISUAL STUDIO\PROFESSIONAL\VC\TOOLS\MSVC\14.15.26726\INCLUDE\VCRUNTIME_TYPEINFO.H
D:\VISUAL STUDIO\PROFESSIONAL\VC\TOOLS\MSVC\14.15.26726\INCLUDE\XLOCINFO
D:\VISUAL STUDIO\PROFESSIONAL\VC\TOOLS\MSVC\14.15.26726\INCLUDE\XLOCINFO.H
C:\PROGRAM FILES (X86)\WINDOWS KITS\10\INCLUDE\10.0.17134.0\UCRT\CTYPE.H
C:\PROGRAM FILES (X86)\WINDOWS KITS\10\INCLUDE\10.0.17134.0\UCRT\LOCALE.H
D:\VISUAL STUDIO\PROFESSIONAL\VC\TOOLS\MSVC\14.15.26726\INCLUDE\MEMORY
D:\VISUAL STUDIO\PROFESSIONAL\VC\TOOLS\MSVC\14.15.26726\INCLUDE\XMEMORY
D:\VISUAL STUDIO\PROFESSIONAL\VC\TOOLS\MSVC\14.15.26726\INCLUDE\XFACET
D:\VISUAL STUDIO\PROFESSIONAL\VC\TOOLS\MSVC\14.15.26726\INCLUDE\SYSTEM_ERROR
D:\VISUAL STUDIO\PROFESSIONAL\VC\TOOLS\MSVC\14.15.26726\INCLUDE\CERRNO
D:\VISUAL STUDIO\PROFESSIONAL\VC\TOOLS\MSVC\14.15.26726\INCLUDE\XCALL_ONCE.H
D:\VISUAL STUDIO\PROFESSIONAL\VC\TOOLS\MSVC\14.15.26726\INCLUDE\XERRC.H
C:\PROGRAM FILES (X86)\WINDOWS KITS\10\INCLUDE\10.0.17134.0\UCRT\SHARE.H
D:\учёба\2 курс лабы\ооп\ооп 1\ооп 1\CLASSES.H
D:\VISUAL STUDIO\PROFESSIONAL\VC\TOOLS\MSVC\14.15.26726\INCLUDE\VECTOR
D:\VISUAL STUDIO\PROFESSIONAL\VC\TOOLS\MSVC\14.15.26726\INCLUDE\STRING
D:\VISUAL STUDIO\PROFESSIONAL\VC\TOOLS\MSVC\14.15.26726\INCLUDE\XSTRING_INSERT.H
